^C:\USERS\ADMINISTRADOR\DOCUMENTS\VISUAL STUDIO 2015\PROJECTS\TRABAJOPRACTICOSDL\TRABAJOPRACTICO\MAIN.CPP
C:\USERS\ADMINISTRADOR\DOCUMENTS\VISUAL STUDIO 2015\PROJECTS\TRABAJOPRACTICOSDL\TRABAJOPRACTICO\DEBUG\VC140.PDB
C:\USERS\ADMINISTRADOR\DOCUMENTS\VISUAL STUDIO 2015\PROJECTS\TRABAJOPRACTICOSDL\TRABAJOPRACTICO\DEBUG\VC140.IDB
C:\USERS\ADMINISTRADOR\DOCUMENTS\VISUAL STUDIO 2015\PROJECTS\TRABAJOPRACTICOSDL\TRABAJOPRACTICO\DEBUG\MAIN.OBJ
